{
  "envsetup": "setup-environment",
  "distro": "rpb",
  "machine": "dragonboard-845c",
  "target": "rpb-console-image",
  "environment": {
    "IAM_ROLE": "bhoj-group_role",
    "kernel": "5.4",
    "testvar": "hello"
  },
  "artifacts": [
    "$DEPLOY_DIR"
  ],
    "container": "ubuntu-20.04"
}
